Expand With Mzroll Defaults — expand_with_mzroll_defaults • clamr
…
#>    sampleId name  filename setName
#>       <int> <chr> <chr>    <chr>  
#>  1        1 NA    NA       NA     
#>  2        2 NA    NA       NA     
#>  3        3 NA    NA       NA     
#>  4        4 NA    NA       NA     
#>  5        5 NA    NA       NA     
#>  6        6 NA    NA       NA     
#>  7        7 NA    NA       NA     
#>  8        8 NA    NA       NA     
#>  9        9 NA    NA       NA     
#> 10       10 NA    NA       NA     
#> 
#> $peaks
#> # A tibble: 100 × 37
#>    peakId groupId sampleId   pos minpos maxpos    rt rtmin rtmax mzmin mzmax
#>     <int>   <int>    <int> <int>  <int>  <int> <dbl> <dbl> <dbl> <dbl> <dbl>
#>  1      1       1        1    NA     NA     NA    NA    NA    NA    NA    NA
#>  2      2       1        2    NA     NA     NA    NA    NA    NA    NA    NA
#>  3      3       1        3    NA     NA     NA    NA    NA    NA    NA    NA
#>  4      4       1        4    NA     NA     NA    NA    NA    NA    NA    NA
#>  5      5       1        5    NA     NA     NA    NA    NA    NA    NA    NA
#>  6      6       1        6    NA     NA     NA    NA    NA    NA    NA    NA
#>  7      7       1        7    NA     NA     NA    NA    NA    NA    NA    NA
#>  8      8       1        8    NA     NA     NA    NA    NA    NA    NA    NA
#>  9      9       1        9    NA     NA     NA    NA    NA    NA    NA    NA
#> 10     10       1       10    NA     NA     NA    NA    NA    NA    NA    NA
#> # … with 90 more rows, and 26 more variables: scan <int>, minscan <int>,
#> #   maxscan <int>, peakArea <dbl>, peakAreaCorrected <dbl>, peakAreaTop <dbl>,
#> #   peakAreaFractional <dbl>, peakRank <dbl>, peakIntensity <dbl>,
#> #   peakBaseLineLevel <dbl>, peakMz <dbl>, medianMz <dbl>, baseMz <dbl>,
#> #   quality <dbl>, width <int>, gaussFitSigma <dbl>, gaussFitR2 <dbl>,
#> #   noNoiseObs <int>, noNoiseFraction <dbl>, symmetry <dbl>,
#> #   signalBaselineRatio <dbl>, groupOverlap <dbl>, groupOverlapFrac <dbl>, …
…
